%YAML 1.1
%TAG !u! tag:unity3d.com,2011:
--- !u!78 &1
TagManager:
  serializedVersion: 2
  tags:
  - PickUp
  layers:
  - Default
  - TransparentFX
  - Ignore Raycast
  - 
  - Water
  - UI
  - 
  - 
  - 
  - 
  - 
  - 
  - 
  - 
  - 
  - 
  - 
  - 
  - 
  - 
  - 
  - 
  - 
  - 
  - 
  - 
  - 
  - 
  - 
  - 
  - 
  - 
  m_SortingLayers:
  - name: Background
    uniqueID: 3548306451
    locked: 0
  - name: MidBackground
    uniqueID: 4163524137
    locked: 0
  - name: OverlayBack
    uniqueID: 2992002309
    locked: 0
  - name: Default
    uniqueID: 0
    locked: 0
  - name: OnCarpet
    uniqueID: 2201793291
    locked: 0
  - name: Forground
    uniqueID: 2014845831
    locked: 0
  - name: Screen
    uniqueID: 1350859695
    locked: 0
